; Engine configuration file.
; It's best edited using the editor UI and not directly,
; since the parameters that go here are not all obvious.
;
; Format:
;   [section] ; section goes between []
;   param=value ; assign values to parameters

config_version=3

[application]

config/name="Concord Online"
run/main_scene="res://scenes/main_menu.tscn"
boot_splash/image="res://assets/brand/Asset 5CONCORD-LOGO.png"
boot_splash/fullsize=false
boot_splash/bg_color=Color( 1, 1, 1, 1 )
config/icon="res://assets/brand/icon_white.png"

[display]

window/size/width=1600
window/size/height=900

[rendering]

environment/default_environment="res://default_env.tres"
